AWSTATS DATA FILE 6.9 (build 1.925)
# If you remove this file, all statistics for date 201002 will be lost/reset.

# Position (offset in bytes) in this file of beginning of each section for
# direct I/O access. If you made changes somewhere in this file, you should
# also remove completely the MAP section (AWStats will rewrite it at next
# update).
BEGIN_MAP 27
POS_GENERAL 1864                
POS_TIME 2542                
POS_VISITOR 6186                
POS_DAY 7547                
POS_DOMAIN 3188                
POS_LOGIN 3440                
POS_ROBOT 3595                
POS_WORMS 3727                
POS_EMAILSENDER 3858                
POS_EMAILRECEIVER 4001                
POS_SESSION 8044                
POS_SIDER 8250                
POS_FILETYPES 4136                
POS_OS 4301                
POS_BROWSER 4399                
POS_SCREENSIZE 4620                
POS_UNKNOWNREFERER 4694                
POS_UNKNOWNREFERERBROWSER 4781                
POS_ORIGIN 4863                
POS_SEREFERRALS 5003                
POS_PAGEREFS 5147                
POS_SEARCHWORDS 5348                
POS_KEYWORDS 5500                
POS_MISC 2206                
POS_ERRORS 5559                
POS_CLUSTER 3296                
POS_SIDER_404 5670                
END_MAP

# LastLine    = Date of last record processed - Last record line number in last log - Last record offset in last log - Last record signature value
# FirstTime   = Date of first visit for history file
# LastTime    = Date of last visit for history file
# LastUpdate  = Date of last update - Nb of parsed records - Nb of parsed old records - Nb of parsed new records - Nb of parsed corrupted - Nb of parsed dropped
# TotalVisits = Number of visits
# TotalUnique = Number of unique visitors
# MonthHostsKnown   = Number of hosts known
# MonthHostsUnKnown = Number of hosts unknown
BEGIN_GENERAL 8
LastLine 20100301054737 7166 1836572 24634416788
FirstTime 20100202133834
LastTime 20100228220412
LastUpdate 20100302010141 1 0 0 0 0
TotalVisits 55                  
TotalUnique 24                  
MonthHostsKnown 16                  
MonthHostsUnknown 8                   
END_GENERAL

# Misc ID - Pages - Hits - Bandwidth
BEGIN_MISC 10
QuickTimeSupport 0 0 0
JavaEnabled 0 0 0
JavascriptDisabled 0 0 0
PDFSupport 0 0 0
WindowsMediaPlayerSupport 0 0 0
AddToFavourites 0 7 0
RealPlayerSupport 0 0 0
TotalMisc 0 0 0
DirectorSupport 0 0 0
FlashSupport 0 0 0
END_MISC

# Hour - Pages - Hits - Bandwidth - Not viewed Pages - Not viewed Hits - Not viewed Bandwidth
BEGIN_TIME 24
0 0 0 0 0 0 0
1 2 2 1837 0 0 0
2 0 0 0 0 0 0
3 0 0 0 0 0 0
4 2 2 1837 0 0 0
5 0 0 0 0 0 0
6 2 2 1837 0 0 0
7 27 77 559643 3 3 621
8 154 384 2948633 12 12 2630
9 103 142 1225417 6 6 1346
10 38 65 209181 5 5 1074
11 91 448 1637550 1 1 259
12 190 599 1763466 7 7 1544
13 199 603 3690509 12 12 2534
14 401 1067 3965594 7 7 1657
15 438 2521 8305787 5 5 1187
16 158 806 4331469 3 3 660
17 6 6 5511 0 0 0
18 9 15 85148 0 0 0
19 49 88 553034 3 3 660
20 18 33 179282 1 1 207
21 0 0 0 1 1 225
22 2 2 1837 0 0 0
23 2 2 1837 0 0 0
END_TIME

# Domain - Pages - Hits - Bandwidth
# The 10 first Pages must be first (order not required for others)
BEGIN_DOMAIN 2
at 1688 6586 27753543
ip 203 278 1715866
END_DOMAIN

# Cluster ID - Pages - Hits - Bandwidth
BEGIN_CLUSTER 0
END_CLUSTER

# Login - Pages - Hits - Bandwidth - Last visit
# The 10 first Pages must be first (order not required for others)
BEGIN_LOGIN 0
END_LOGIN

# Robot ID - Hits - Bandwidth - Last visit - Hits on robots.txt
# The 10 first Hits must be first (order not required for others)
BEGIN_ROBOT 0
END_ROBOT

# Worm ID - Hits - Bandwidth - Last visit
# The 5 first Hits must be first (order not required for others)
BEGIN_WORMS 0
END_WORMS

# EMail - Hits - Bandwidth - Last visit
# The 20 first Hits must be first (order not required for others)
BEGIN_EMAILSENDER 0
END_EMAILSENDER

# EMail - Hits - Bandwidth - Last visit
# The 20 first hits must be first (order not required for others)
BEGIN_EMAILRECEIVER 0
END_EMAILRECEIVER

# Files type - Hits - Bandwidth - Bandwidth without compression - Bandwidth after compression
BEGIN_FILETYPES 6
php 1787 20650348 0 0
css 1374 271345 0 0
png 1536 2133156 0 0
html 104 0 0 0
js 344 588295 0 0
jpg 1719 5826265 0 0
END_FILETYPES

# OS ID - Hits
BEGIN_OS 5
macosx 35
winunknown 42
winxp 6116
winlong 301
win2008 370
END_OS

# Browser ID - Hits
BEGIN_BROWSER 11
msie8.0 154
microsoft\-webdav\-miniredir 42
firefox3.6 300
chrome 37
firefox3.5.8 85
msie7.0 369
opera 38
firefox3.0.10 154
safari 35
firefox3.5.7 5643
firefox2.0.0.13 7
END_BROWSER

# Screen size - Hits
BEGIN_SCREENSIZE 0
END_SCREENSIZE

# Unknown referer OS - Last visit date
BEGIN_UNKNOWNREFERER 0
END_UNKNOWNREFERER

# Unknown referer Browser - Last visit date
BEGIN_UNKNOWNREFERERBROWSER 0
END_UNKNOWNREFERERBROWSER

# Origin - Pages - Hits 
BEGIN_ORIGIN 6
From0 244 244
From1 0 0
From2 0 0
From3 4 4
From4 1643 6616
From5 0 0
END_ORIGIN

# Search engine referers ID - Pages - Hits
BEGIN_SEREFERRALS 0
END_SEREFERRALS

# External page referers - Pages - Hits
# The 10 first Pages must be first (order not required for others)
BEGIN_PAGEREFS 1
http://webmail.tele2.at/Redirect/sb.buchzeit.at/ 4 4
END_PAGEREFS

# Search keyphrases - Number of search
# The 10 first number of search must be first (order not required for others)
BEGIN_SEARCHWORDS 0
END_SEARCHWORDS

# Search keywords - Number of search
# The 10 first number of search must be first (order not required for others)
BEGIN_KEYWORDS 0
END_KEYWORDS

# Errors - Hits - Bandwidth
BEGIN_ERRORS 3
302 33 6889
404 10 1898
301 23 5817
END_ERRORS

# URL with 404 errors - Hits - Last URL referer
BEGIN_SIDER_404 7
/index.php.php 2 http://sb.buchzeit.at.config02.itandtel.at/password_recover.php
/phpMyAdmin 1 -
/robots.txt 1 -
/phpmyadmin/setup/config.php 1 -
/phpMyAdmin/setup/config.php 1 -
/phpmyadmin/ 1 -
/admin 3 -
END_SIDER_404

# Host - Pages - Hits - Bandwidth - Last visit date - [Start date of last visit] - [Last page of last visit]
# [Start date of last visit] and [Last page of last visit] are saved only if session is not finished
# The 10 first Hits must be first (order not required for others)
BEGIN_VISITOR 24
dummy.itandtel.at 1385 5823 23725496 20100225130619
80.243.175.152 157 222 1533395 20100225092555
188-23-199-159.adsl.highway.telekom.at 63 307 1162042 20100212132023
88-117-43-192.adsl.highway.telekom.at 49 88 553034 20100219192502
188-23-203-246.adsl.highway.telekom.at 43 63 468950 20100214135912
62-47-48-252.adsl.highway.telekom.at 26 47 277552 20100218083106
213162066170.public.t-mobile.at 19 32 218333 20100225130313
chello080108184195.2.12.vie.surfer.at 17 37 192976 20100218092904
teacheradsl1.eduhi.at 16 31 179263 20100225124730
62-47-61-218.adsl.highway.telekom.at 16 31 177445 20100217202328
85.30.243.174 8 8 7348 20100227103142
d91-129-39-27.cust.tele2.at 14 29 177604 20100228150550
85.30.247.204 8 8 7348 20100228220412
85.30.248.45 4 4 3674 20100222185552
85.30.250.17 14 14 12859 20100228205457
213162066160.public.t-mobile.at 8 19 48228 20100217154035
d91-128-221-1.cust.tele2.at 2 7 71947 20100218091528
62-47-33-79.adsl.highway.telekom.at 12 28 185227 20100224160406
88-117-42-147.adsl.highway.telekom.at 3 9 79637 20100221181533
10.9.1.180 2 7 71947 20100215081600
125.17.11.118 2 7 71947 20100217071442
85.30.244.200 8 8 7348 20100222072811
62-47-39-196.adsl.highway.telekom.at 3 9 79637 20100218100247
213162066173.public.t-mobile.at 12 26 156172 20100215165000
END_VISITOR

# Date - Pages - Hits - Bandwidth - Visits
BEGIN_DAY 18
20100202 24 44 183309 1
20100209 256 524 2334367 1
20100210 329 854 3013263 3
20100211 668 3712 13335738 1
20100212 139 716 2507064 2
20100214 43 63 468950 1
20100215 58 237 830902 4
20100217 26 57 297620 3
20100218 82 181 1035243 7
20100219 78 144 2219755 2
20100220 2 2 1837 1
20100221 7 13 83311 3
20100222 51 97 591326 6
20100223 4 9 75306 2
20100224 16 37 260533 3
20100225 70 121 2031237 5
20100227 4 4 3674 2
20100228 34 49 195974 8
END_DAY

# Session range - Number of visits
BEGIN_SESSION 7
1h+ 4
5mn-15mn 8
0s-30s 27
15mn-30mn 3
30s-2mn 4
2mn-5mn 5
30mn-1h 4
END_SESSION

# URL - Pages - Bandwidth - Entry - Exit
# The 10 first Pages must be first (order not required for others)
BEGIN_SIDER 22
/admincp/listschools.php 395 7574685 0 3
/formular.php 364 1618340 0 6
/login.php 208 294461 4 35
/admincp/search_output.php 168 2118240 0 1
/admincp/search.php 95 549021 0 0
/admincp/listschools_detail.php 86 1021278 0 1
/ 81 0 48 0
/admincp/login.php 76 76091 0 2
/password_recover_mail.php 74 49936 0 1
/password_recover.php 74 71074 0 0
/admincp/search_output_detail.php 26 312634 0 0
/index_member.php 67 87788 0 1
/writedb_final.php 24 26885 0 3
/admincp/ 23 0 3 0
/admincp/csv_output.php 19 6681926 0 0
/admincp/listschools_detail_print.php 9 98996 0 1
/admincp/index.php 1 0 0 0
/admincp/profile.php 18 36575 0 0
/writedb.php 24 0 0 0
/index.php 41 0 0 0
/profile.php 16 32418 0 1
/mail.php 2 0 0 0
END_SIDER
