AWSTATS DATA FILE 6.95 (build 1.943)
# If you remove this file, all statistics for date 201107 will be lost/reset.
# Last config file used to build this data file was /etc/awstats/awstats.conf.

# Position (offset in bytes) in this file for beginning of each section for
# direct I/O access. If you made changes somewhere in this file, you should
# also remove completely the MAP section (AWStats will rewrite it at next
# update).
BEGIN_MAP 27
POS_GENERAL 1945                
POS_TIME 2622                
POS_VISITOR 6508                
POS_DAY 8239                
POS_DOMAIN 3299                
POS_LOGIN 3578                
POS_ROBOT 3733                
POS_WORMS 4134                
POS_EMAILSENDER 4265                
POS_EMAILRECEIVER 4408                
POS_SESSION 8657                
POS_SIDER 8857                
POS_FILETYPES 4543                
POS_OS 4695                
POS_BROWSER 4786                
POS_SCREENSIZE 5029                
POS_UNKNOWNREFERER 5103                
POS_UNKNOWNREFERERBROWSER 5190                
POS_ORIGIN 5272                
POS_SEREFERRALS 5410                
POS_PAGEREFS 5563                
POS_SEARCHWORDS 5808                
POS_KEYWORDS 5976                
POS_MISC 2286                
POS_ERRORS 6053                
POS_CLUSTER 3434                
POS_SIDER_404 6165                
END_MAP

# LastLine    = Date of last record processed - Last record line number in last log - Last record offset in last log - Last record signature value
# FirstTime   = Date of first visit for history file
# LastTime    = Date of last visit for history file
# LastUpdate  = Date of last update - Nb of parsed records - Nb of parsed old records - Nb of parsed new records - Nb of parsed corrupted - Nb of parsed dropped
# TotalVisits = Number of visits
# TotalUnique = Number of unique visitors
# MonthHostsKnown   = Number of hosts known
# MonthHostsUnKnown = Number of hosts unknown
BEGIN_GENERAL 8
LastLine 20110801085135 1232 227973 39934850665
FirstTime 20110701094434
LastTime 20110728104017
LastUpdate 20110802010053 1 0 0 0 0
TotalVisits 30                  
TotalUnique 29                  
MonthHostsKnown 27                  
MonthHostsUnknown 3                   
END_GENERAL

# Misc ID - Pages - Hits - Bandwidth
BEGIN_MISC 10
QuickTimeSupport 0 0 0
JavaEnabled 0 0 0
JavascriptDisabled 0 0 0
PDFSupport 0 0 0
WindowsMediaPlayerSupport 0 0 0
AddToFavourites 0 0 0
RealPlayerSupport 0 0 0
TotalMisc 0 0 0
DirectorSupport 0 0 0
FlashSupport 0 0 0
END_MISC

# Hour - Pages - Hits - Bandwidth - Not viewed Pages - Not viewed Hits - Not viewed Bandwidth
BEGIN_TIME 24
0 0 0 0 13 15 12832
1 0 0 0 14 15 9300
2 0 0 0 111 111 32383
3 0 0 0 8 8 3661
4 0 0 0 11 11 6011
5 4 14 148124 83 85 29262
6 0 1 8649 5 5 3001
7 10 10 15562 7 8 5872
8 2 8 82711 101 103 32884
9 16 39 257734 19 24 10982
10 61 93 443617 2 8 208
11 6 21 222186 6 13 11866
12 0 0 0 3 3 207
13 0 0 0 5 6 5659
14 0 0 0 11 11 6218
15 5 10 81260 5 9 4545
16 43 75 443983 197 204 48634
17 16 32 169685 9 12 6049
18 2 8 82711 5 5 5172
19 4 11 90704 2 4 217
20 24 47 283576 6 10 4578
21 32 67 431056 1 6 207
22 7 22 154338 42 47 25652
23 13 30 96502 7 10 10406
END_TIME

# Domain - Pages - Hits - Bandwidth
# The 10 first Pages must be first (order not required for others)
BEGIN_DOMAIN 4
at 178 366 2227284
net 38 65 375757
ip 25 43 261233
com 4 14 148124
END_DOMAIN

# Cluster ID - Pages - Hits - Bandwidth
BEGIN_CLUSTER 0
END_CLUSTER

# Login - Pages - Hits - Bandwidth - Last visit
# The 10 first Pages must be first (order not required for others)
BEGIN_LOGIN 0
END_LOGIN

# Robot ID - Hits - Bandwidth - Last visit - Hits on robots.txt
# The 10 first Hits must be first (order not required for others)
BEGIN_ROBOT 8
bot[\s_+:,\.\;\/\\-] 35 23780 20110728162820 0
slurp 32 62780 20110729055353 0
googlebot 14 24668 20110731171755 0
yandex 7 11890 20110730170604 0
robot 6 7134 20110721181834 0
bbot 3 4756 20110719084932 0
mj12bot 3 4756 20110701022828 0
python 2 2378 20110713045941 0
END_ROBOT

# Worm ID - Hits - Bandwidth - Last visit
# The 5 first Hits must be first (order not required for others)
BEGIN_WORMS 0
END_WORMS

# EMail - Hits - Bandwidth - Last visit
# The 20 first Hits must be first (order not required for others)
BEGIN_EMAILSENDER 0
END_EMAILSENDER

# EMail - Hits - Bandwidth - Last visit
# The 20 first hits must be first (order not required for others)
BEGIN_EMAILRECEIVER 0
END_EMAILRECEIVER

# Files type - Hits - Bandwidth - Bandwidth without compression - Bandwidth after compression
BEGIN_FILETYPES 6
css 41 82338 0 0
php 195 512886 0 0
png 81 366090 0 0
html 50 0 0 0
jpg 78 1748369 0 0
js 43 302715 0 0
END_FILETYPES

# OS ID - Hits
BEGIN_OS 5
macosx 7
winxp 277
winlong 78
win2003 7
win2008 119
END_OS

# Browser ID - Hits
BEGIN_BROWSER 13
msie6.0 14
msie8.0 175
firefox5.0 56
firefox4.0.1 7
msie7.0 52
firefox3.6.6 7
firefox3.6.18 39
firefox3.6.3 2
firefox4.0 58
msie9.0 54
chrome12.0.742.112 7
chrome12.0.742.122 10
safari5.0.5 7
END_BROWSER

# Screen size - Hits
BEGIN_SCREENSIZE 0
END_SCREENSIZE

# Unknown referer OS - Last visit date
BEGIN_UNKNOWNREFERER 0
END_UNKNOWNREFERER

# Unknown referer Browser - Last visit date
BEGIN_UNKNOWNREFERERBROWSER 0
END_UNKNOWNREFERERBROWSER

# Origin - Pages - Hits 
BEGIN_ORIGIN 6
From0 21 21
From1 0 0
From2 2 2
From3 89 89
From4 133 376
From5 0 0
END_ORIGIN

# Search engine referers ID - Pages - Hits
BEGIN_SEREFERRALS 1
bing 2 2
END_SEREFERRALS

# External page referers - Pages - Hits
# The 10 first Pages must be first (order not required for others)
BEGIN_PAGEREFS 2
http://www.buchzeit.at/index.php 88 88
http://www3.edumoodle.at/buchzeitwels/course/view.php 1 1
END_PAGEREFS

# Search keyphrases - Number of search
# The 10 first number of search must be first (order not required for others)
BEGIN_SEARCHWORDS 1
sb+verwaltung 2
END_SEARCHWORDS

# Search keywords - Number of search
# The 10 first number of search must be first (order not required for others)
BEGIN_KEYWORDS 2
sb 2
verwaltung 2
END_KEYWORDS

# Errors - Hits - Bandwidth
BEGIN_ERRORS 3
302 538 123856
404 46 9569
301 1 239
END_ERRORS

# URL with 404 errors - Hits - Last URL referer
BEGIN_SIDER_404 2
/appConf.htm 1 -
/robots.txt 45 -
END_SIDER_404

# Host - Pages - Hits - Bandwidth - Last visit date - [Start date of last visit] - [Last page of last visit]
# [Start date of last visit] and [Last page of last visit] are saved only if session is not finished
# The 10 first Hits must be first (order not required for others)
BEGIN_VISITOR 30
schulpool234.eduhi.at 42 53 131284 20110701104417
188-22-146-88.adsl.highway.telekom.at 24 39 223719 20110714201555
mk046207255115.a1.net 23 39 205034 20110714212907
80.243.175.152 21 29 113109 20110701165821
188-23-123-67.adsl.highway.telekom.at 16 31 181923 20110701165647
schulpool235.eduhi.at 15 26 164209 20110704101847
mk046207255243.a1.net 13 19 96661 20110711170521
chello084113250081.4.19.vie.surfer.at 13 30 96502 20110710231948
sec-gw.itandtel.at 11 23 175907 20110706161500
188-23-129-160.adsl.highway.telekom.at 10 10 15562 20110703071205
62-47-159-234.adsl.highway.telekom.at 2 7 74062 20110701102708
212-183-116-185.adsl.highway.telekom.at 6 20 151960 20110704221635
178-191-8-97.adsl.highway.telekom.at 2 7 74062 20110704203807
193.171.62.182 2 7 74062 20110706114918
212-183-119-177.adsl.highway.telekom.at 6 16 80276 20110711224024
mail-out.lk-austria.at 2 7 74062 20110728104017
91-114-133-251.adsl.highway.telekom.at 5 10 81260 20110724155310
gblinz.gruene.at 2 7 74062 20110713112536
194.113.77.6 2 7 74062 20110714090217
chello080108098079.33.11.vie.surfer.at 2 12 76499 20110720201305
91-113-124-133.adsl.highway.telekom.at 5 15 77839 20110701173140
schulpool231.eduhi.at 5 15 77839 20110701094519
mnch-5d868233.pool.mediaways.net 2 7 74062 20110723171728
xan.metajob.at 0 2 17298 
91-115-64-17.adsl.highway.telekom.at 2 7 74062 20110712212810
cpe-62.93.101.83.ktvam.at 2 7 74062 20110723114648
msnbot-207-46-204-208.search.msn.com 4 14 148124 20110711053858
d86-33-68-12.cust.tele2.at 2 7 74062 20110711080654
91-115-86-5.adsl.highway.telekom.at 2 7 74062 20110710214745
188-23-10-117.adsl.highway.telekom.at 2 8 82711 20110705185900
END_VISITOR

# Date - Pages - Hits - Bandwidth - Visits
BEGIN_DAY 16
20110701 91 150 656056 6
20110703 10 10 15562 1
20110704 23 53 390231 3
20110705 11 25 188544 2
20110706 4 13 144136 2
20110709 0 1 8649 0
20110710 15 37 170564 2
20110711 25 56 399123 4
20110712 2 7 74062 1
20110713 2 7 74062 1
20110714 49 85 502815 3
20110719 0 1 8649 0
20110720 2 12 76499 1
20110723 4 14 148124 2
20110724 5 10 81260 1
20110728 2 7 74062 1
END_DAY

# Session range - Number of visits
BEGIN_SESSION 6
5mn-15mn 8
15mn-30mn 1
2mn-5mn 2
30s-2mn 3
0s-30s 15
30mn-1h 1
END_SESSION

# URL - Pages - Bandwidth - Entry - Exit
# The 10 first Pages must be first (order not required for others)
BEGIN_SIDER 16
/login.php 95 203111 4 26
/ 46 0 24 0
/formular.php 35 179333 0 1
/admincp/login.php 18 30263 1 1
/password_recover.php 13 14008 0 0
/index_member.php 11 15389 0 0
/password_recover_mail.php 5 6479 0 2
/admincp/ 4 0 1 0
/index.php 4 0 0 0
/writedb_final.php 3 3297 0 0
/admincp/search_output_detail.php 1 12145 0 0
/admincp/listschools.php 2 28002 0 0
/writedb.php 3 0 0 0
/profile.php 3 6384 0 0
/admincp/search.php 1 6058 0 0
/admincp/search_output.php 1 8417 0 0
END_SIDER
