AWSTATS DATA FILE 7.0 (build 1.971)
# If you remove this file, all statistics for date 201308 will be lost/reset.
# Last config file used to build this data file was /etc/awstats/awstats.conf.

# Position (offset in bytes) in this file for beginning of each section for
# direct I/O access. If you made changes somewhere in this file, you should
# also remove completely the MAP section (AWStats will rewrite it at next
# update).
BEGIN_MAP 27
POS_GENERAL 1979                
POS_TIME 2645                
POS_VISITOR 6939                
POS_DAY 8042                
POS_DOMAIN 3297                
POS_LOGIN 3595                
POS_ROBOT 3750                
POS_WORMS 4318                
POS_EMAILSENDER 4449                
POS_EMAILRECEIVER 4592                
POS_SESSION 8458                
POS_SIDER 8616                
POS_FILETYPES 4727                
POS_DOWNLOADS 4891                
POS_OS 4939                
POS_BROWSER 5043                
POS_SCREENSIZE 5235                
POS_UNKNOWNREFERER 5309                
POS_UNKNOWNREFERERBROWSER 5441                
POS_ORIGIN 5548                
POS_SEREFERRALS 5683                
POS_PAGEREFS 5838                
POS_SEARCHWORDS 6170                
POS_KEYWORDS 6322                
POS_MISC 2309                
POS_ERRORS 6381                
POS_CLUSTER 3451                
POS_SIDER_404 6484                
END_MAP

# LastLine    = Date of last record processed - Last record line number in last log - Last record offset in last log - Last record signature value
# FirstTime   = Date of first visit for history file
# LastTime    = Date of last visit for history file
# LastUpdate  = Date of last update - Nb of parsed records - Nb of parsed old records - Nb of parsed new records - Nb of parsed corrupted - Nb of parsed dropped
# TotalVisits = Number of visits
# TotalUnique = Number of unique visitors
# MonthHostsKnown   = Number of hosts known
# MonthHostsUnKnown = Number of hosts unknown
BEGIN_GENERAL 8
LastLine 20130901070143 22726 4812228 42332948229
FirstTime 0
LastTime 20130830110047
LastUpdate 20130902010042 1 0 0 0 0
TotalVisits 17                  
TotalUnique 17                  
MonthHostsKnown 15                  
MonthHostsUnknown 5                   
END_GENERAL

# Misc ID - Pages - Hits - Bandwidth
BEGIN_MISC 10
QuickTimeSupport 0 0 0
JavaEnabled 0 0 0
JavascriptDisabled 0 0 0
PDFSupport 0 0 0
WindowsMediaPlayerSupport 0 0 0
AddToFavourites 0 1 0
RealPlayerSupport 0 0 0
TotalMisc 0 0 0
DirectorSupport 0 0 0
FlashSupport 0 0 0
END_MISC

# Hour - Pages - Hits - Bandwidth - Not viewed Pages - Not viewed Hits - Not viewed Bandwidth
BEGIN_TIME 24
0 0 0 0 14 26 15735
1 4 7 33081 17 35 32843
2 0 0 0 13 30 14414
3 0 0 0 5 18 6224
4 2 2 2378 3 8 1472
5 2 7 74062 8 15 6643
6 0 0 0 7 12 6228
7 2 2 2378 5 8 5596
8 2 7 74062 6 12 6227
9 2 3 11027 10 21 8114
10 2 7 74062 18 38 39118
11 6 16 150502 7 11 10135
12 6 12 115235 13 21 31784
13 2 3 11027 25 40 25663
14 0 0 0 13 34 61865
15 2 9 98032 18 34 20907
16 2 7 74062 4 16 5592
17 0 0 0 8 25 45675
18 0 0 0 5 8 5596
19 2 7 74062 11 24 10712
20 0 0 0 7 13 8403
21 4 9 76440 5 12 6437
22 0 0 0 8 16 43268
23 0 0 0 14 34 17255
END_TIME

# Domain - Pages - Hits - Bandwidth
# The 10 first Pages must be first (order not required for others)
BEGIN_DOMAIN 6
at 12 41 435052
ip 10 25 226942
com 8 16 116193
net 6 6 7134
it 2 7 74062
de 2 3 11027
END_DOMAIN

# Cluster ID - Pages - Hits - Bandwidth
BEGIN_CLUSTER 0
END_CLUSTER

# Login - Pages - Hits - Bandwidth - Last visit
# The 10 first Pages must be first (order not required for others)
BEGIN_LOGIN 0
END_LOGIN

# Robot ID - Hits - Bandwidth - Last visit - Hits on robots.txt
# The 10 first Hits must be first (order not required for others)
BEGIN_ROBOT 13
googlebot 88 127514 20130831114455 0
robot 28 67758 20130827151247 0
bot[\s_+:,\.\;\/\\-] 15 59604 20130823024414 0
spider 12 14268 20130812131651 0
yandex 8 9512 20130826013336 0
netcraft 6 0 20130819135412 0
bbot 4 7134 20130830013428 0
linkchecker 3 2378 20130805125729 0
python 2 2378 20130818015028 0
favicon 2 2378 20130827200325 0
exabot 1 0 20130824025329 0
msnbot\-media 2 72834 20130830175259 0
crawl 2 2378 20130827140315 0
END_ROBOT

# Worm ID - Hits - Bandwidth - Last visit
# The 5 first Hits must be first (order not required for others)
BEGIN_WORMS 0
END_WORMS

# EMail - Hits - Bandwidth - Last visit
# The 20 first Hits must be first (order not required for others)
BEGIN_EMAILSENDER 0
END_EMAILSENDER

# EMail - Hits - Bandwidth - Last visit
# The 20 first hits must be first (order not required for others)
BEGIN_EMAILRECEIVER 0
END_EMAILRECEIVER

# Files type - Hits - Bandwidth - Bandwidth without compression - Bandwidth after compression
BEGIN_FILETYPES 6
css 10 26480 0 0
php 21 49938 0 0
png 11 43868 0 0
html 19 0 0 0
jpg 22 620389 0 0
js 15 129735 0 0
END_FILETYPES

# Downloads - Hits - Bandwidth
BEGIN_DOWNLOADS 0
END_DOWNLOADS

# OS ID - Hits
BEGIN_OS 7
macosx 9
winxp 38
win2003 7
Unknown 8
winvista 7
linux 6
win7 23
END_OS

# Browser ID - Hits
BEGIN_BROWSER 11
mozilla 6
firefox17.0 6
msie7.0 7
firefox23.0 28
msie10.0 15
chrome28.0.1500.95 14
firefox3.6.3 3
safari6.0 9
curl 4
Unknown 4
firefox11.0 2
END_BROWSER

# Screen size - Hits
BEGIN_SCREENSIZE 0
END_SCREENSIZE

# Unknown referer OS - Last visit date
BEGIN_UNKNOWNREFERER 2
asynchttp 20130806043241
curl 20130829125536
END_UNKNOWNREFERER

# Unknown referer Browser - Last visit date
BEGIN_UNKNOWNREFERERBROWSER 1
asynchttp 20130806043241
END_UNKNOWNREFERERBROWSER

# Origin - Pages - Hits 
BEGIN_ORIGIN 6
From0 18 18
From1 0 0
From2 0 1
From3 22 22
From4 0 57
From5 0 0
END_ORIGIN

# Search engine referers ID - Pages - Hits
BEGIN_SEREFERRALS 1
google 0 1
END_SEREFERRALS

# External page referers - Pages - Hits
# The 10 first Pages must be first (order not required for others)
BEGIN_PAGEREFS 3
http://www.buchzeit.at/schulbibliothek/aps.html 10 10
http://www.buchzeit.at/schulbibliothek/aps/praxis.html 10 10
http://www.buchzeit.at/schulbibliothek/aps/jahresplanung-sb.html 2 2
END_PAGEREFS

# Search keyphrases - Number of search
# The 10 first number of search must be first (order not required for others)
BEGIN_SEARCHWORDS 0
END_SEARCHWORDS

# Search keywords - Number of search
# The 10 first number of search must be first (order not required for others)
BEGIN_KEYWORDS 0
END_KEYWORDS

# Errors - Hits - Bandwidth
BEGIN_ERRORS 2
302 179 37760
404 146 29792
END_ERRORS

# URL with 404 errors - Hits - Last URL referer
BEGIN_SIDER_404 6
/apple-touch-icon-precomposed.png 1 -
/robots.txt 141 -
/admin/config.php 1 -
/apple-touch-icon.png 1 -
/manager/html 1 -
/mail/calendar.html 1 -
END_SIDER_404

# Host - Pages - Hits - Bandwidth - Last visit date - [Start date of last visit] - [Last page of last visit]
# [Start date of last visit] and [Last page of last visit] are saved only if session is not finished
# The 10 first Hits must be first (order not required for others)
BEGIN_VISITOR 20
ganymed.wikatu.com 4 4 7134 20130801013808
83-215-56-64.saalf.dyn.salzburg-online.at 4 9 76440 20130810211520
80-69-77-170.colo.transip.net 4 4 4756 20130829125536
loft1588.serverloft.de 2 3 11027 20130802133001
93-82-157-16.adsl.highway.telekom.at 2 7 74062 20130823154602
88-117-124-176.adsl.highway.telekom.at 2 7 74062 20130805162104
bzq-82-80-249-137.static.dcenter.bezeqint.net 2 2 2378 20130830110047
85-125-185-74.work.xdsl-line.inode.at 2 7 74062 20130826104842
88-117-21-205.adsl.highway.telekom.at 2 7 74062 20130814111536
static-ip-188-138-41-173.inaddr.ip-pool.com 2 3 11027 20130822090823
msnbot-199-30-24-15.search.msn.com 0 2 23970 
37.183.32.11 2 7 74062 20130827195416
131.107.174.183 2 2 2378 20130806043241
62-46-238-177.adsl.highway.telekom.at 0 1 36417 
merlin2.provinz.bz.it 2 7 74062 20130829122415
131.107.192.212 2 2 2378 20130803074940
xan.metajob.at 0 3 25947 
90.146.111.221 2 7 74062 20130821082522
msnbot-131-253-24-94.search.msn.com 2 7 74062 20130801051216
193.171.63.249 2 7 74062 20130827115427
END_VISITOR

# Date - Pages - Hits - Bandwidth - Visits
BEGIN_DAY 17
20130801 6 11 81196 2
20130802 2 3 11027 1
20130803 2 2 2378 1
20130805 2 7 74062 1
20130806 2 2 2378 1
20130810 4 10 85089 1
20130813 0 2 23970 0
20130814 2 7 74062 1
20130817 0 1 36417 0
20130820 0 1 8649 0
20130821 2 7 74062 1
20130822 2 3 11027 1
20130823 2 7 74062 1
20130826 2 7 74062 1
20130827 4 14 148124 2
20130829 6 11 78818 2
20130830 2 3 11027 1
END_DAY

# Session range - Number of visits
BEGIN_SESSION 2
5mn-15mn 1
0s-30s 16
END_SESSION

# URL - Pages - Bandwidth - Entry - Exit
# The 10 first Pages must be first (order not required for others)
BEGIN_SIDER 2
/login.php 21 49938 0 17
/ 19 0 17 0
END_SIDER
