AWSTATS DATA FILE 7.0 (build 1.971)
# If you remove this file, all statistics for date 201307 will be lost/reset.
# Last config file used to build this data file was /etc/awstats/awstats.conf.

# Position (offset in bytes) in this file for beginning of each section for
# direct I/O access. If you made changes somewhere in this file, you should
# also remove completely the MAP section (AWStats will rewrite it at next
# update).
BEGIN_MAP 27
POS_GENERAL 1979                
POS_TIME 2660                
POS_VISITOR 6595                
POS_DAY 8346                
POS_DOMAIN 3327                
POS_LOGIN 3627                
POS_ROBOT 3782                
POS_WORMS 4150                
POS_EMAILSENDER 4281                
POS_EMAILRECEIVER 4424                
POS_SESSION 8817                
POS_SIDER 9007                
POS_FILETYPES 4559                
POS_DOWNLOADS 4726                
POS_OS 4774                
POS_BROWSER 4867                
POS_SCREENSIZE 5082                
POS_UNKNOWNREFERER 5156                
POS_UNKNOWNREFERERBROWSER 5243                
POS_ORIGIN 5384                
POS_SEREFERRALS 5521                
POS_PAGEREFS 5665                
POS_SEARCHWORDS 5904                
POS_KEYWORDS 6056                
POS_MISC 2324                
POS_ERRORS 6115                
POS_CLUSTER 3483                
POS_SIDER_404 6218                
END_MAP

# LastLine    = Date of last record processed - Last record line number in last log - Last record offset in last log - Last record signature value
# FirstTime   = Date of first visit for history file
# LastTime    = Date of last visit for history file
# LastUpdate  = Date of last update - Nb of parsed records - Nb of parsed old records - Nb of parsed new records - Nb of parsed corrupted - Nb of parsed dropped
# TotalVisits = Number of visits
# TotalUnique = Number of unique visitors
# MonthHostsKnown   = Number of hosts known
# MonthHostsUnKnown = Number of hosts unknown
BEGIN_GENERAL 8
LastLine 20130801002250 21964 4677470 48003301653
FirstTime 20130701132910
LastTime 20130731113744
LastUpdate 20130801010140 30 0 29 0 0
TotalVisits 29                  
TotalUnique 29                  
MonthHostsKnown 28                  
MonthHostsUnknown 2                   
END_GENERAL

# Misc ID - Pages - Hits - Bandwidth
BEGIN_MISC 10
QuickTimeSupport 0 0 0
JavaEnabled 0 0 0
JavascriptDisabled 0 0 0
PDFSupport 0 0 0
WindowsMediaPlayerSupport 0 0 0
AddToFavourites 0 0 0
RealPlayerSupport 0 0 0
TotalMisc 0 0 0
DirectorSupport 0 0 0
FlashSupport 0 0 0
END_MISC

# Hour - Pages - Hits - Bandwidth - Not viewed Pages - Not viewed Hits - Not viewed Bandwidth
BEGIN_TIME 24
0 0 0 0 11 20 9027
1 0 1 8649 10 15 12519
2 0 0 0 12 21 11629
3 2 2 2378 30 45 28835
4 0 0 0 6 14 6861
5 0 0 0 3 7 14298
6 0 0 0 13 28 9595
7 0 0 0 5 16 3368
8 2 2 2378 6 13 4275
9 16 34 253760 7 19 4689
10 2 2 2378 10 19 14194
11 21 32 174884 6 15 6427
12 0 0 0 11 23 10701
13 2 7 74062 7 13 8606
14 0 0 0 7 17 7493
15 10 36 378959 9 19 6642
16 2 7 74062 12 21 15799
17 23 38 231698 10 23 10286
18 0 0 0 13 30 11771
19 4 14 148124 15 28 17420
20 8 19 161529 4 10 1471
21 2 8 82711 6 12 4060
22 8 24 233213 5 13 3642
23 2 7 74062 9 19 5114
END_TIME

# Domain - Pages - Hits - Bandwidth
# The 10 first Pages must be first (order not required for others)
BEGIN_DOMAIN 6
at 80 172 1355225
de 8 19 161529
net 6 11 76440
com 6 22 230835
ip 2 2 4756
eu 2 7 74062
END_DOMAIN

# Cluster ID - Pages - Hits - Bandwidth
BEGIN_CLUSTER 0
END_CLUSTER

# Login - Pages - Hits - Bandwidth - Last visit
# The 10 first Pages must be first (order not required for others)
BEGIN_LOGIN 0
END_LOGIN

# Robot ID - Hits - Bandwidth - Last visit - Hits on robots.txt
# The 10 first Hits must be first (order not required for others)
BEGIN_ROBOT 7
googlebot 101 130337 20130731190041 0
crawl 12 14268 20130729031624 0
robot 12 9512 20130731212636 0
netcraft 6 0 20130712163131 0
yandex 4 4756 20130718153442 0
bot[\s_+:,\.\;\/\\-] 4 4756 20130728001757 0
bbot 3 4129 20130731013432 0
END_ROBOT

# Worm ID - Hits - Bandwidth - Last visit
# The 5 first Hits must be first (order not required for others)
BEGIN_WORMS 0
END_WORMS

# EMail - Hits - Bandwidth - Last visit
# The 20 first Hits must be first (order not required for others)
BEGIN_EMAILSENDER 0
END_EMAILSENDER

# EMail - Hits - Bandwidth - Last visit
# The 20 first hits must be first (order not required for others)
BEGIN_EMAILRECEIVER 0
END_EMAILRECEIVER

# Files type - Hits - Bandwidth - Bandwidth without compression - Bandwidth after compression
BEGIN_FILETYPES 6
css 23 60904 0 0
php 72 200824 0 0
png 34 158169 0 0
html 32 0 0 0
jpg 44 1240778 0 0
js 28 242172 0 0
END_FILETYPES

# Downloads - Hits - Bandwidth
BEGIN_DOWNLOADS 0
END_DOWNLOADS

# OS ID - Hits
BEGIN_OS 6
macosx 14
winlong 27
winxp 19
java 2
linux 9
win7 162
END_OS

# Browser ID - Hits
BEGIN_BROWSER 13
msie6.0 2
firefox17.0 3
mozilla 2
firefox22.0 66
msie7.0 9
msie10.0 74
firefox21.0 7
firefox3.6.3 1
msie9.0 44
chrome27.0.1453.116 9
Unknown 2
safari 7
opera9.80 7
END_BROWSER

# Screen size - Hits
BEGIN_SCREENSIZE 0
END_SCREENSIZE

# Unknown referer OS - Last visit date
BEGIN_UNKNOWNREFERER 0
END_UNKNOWNREFERER

# Unknown referer Browser - Last visit date
BEGIN_UNKNOWNREFERERBROWSER 1
Apache-HttpAsyncClient/4.0-beta4_(java_1.5) 20130723032236
END_UNKNOWNREFERERBROWSER

# Origin - Pages - Hits 
BEGIN_ORIGIN 6
From0 14 14
From1 0 0
From2 0 0
From3 49 49
From4 41 170
From5 0 0
END_ORIGIN

# Search engine referers ID - Pages - Hits
BEGIN_SEREFERRALS 0
END_SEREFERRALS

# External page referers - Pages - Hits
# The 10 first Pages must be first (order not required for others)
BEGIN_PAGEREFS 2
http://www.buchzeit.at/index.php 45 45
http://www.buchzeit.at/schulbibliothek/aps.html 4 4
END_PAGEREFS

# Search keyphrases - Number of search
# The 10 first number of search must be first (order not required for others)
BEGIN_SEARCHWORDS 0
END_SEARCHWORDS

# Search keywords - Number of search
# The 10 first number of search must be first (order not required for others)
BEGIN_KEYWORDS 0
END_KEYWORDS

# Errors - Hits - Bandwidth
BEGIN_ERRORS 2
302 165 34738
404 126 26226
END_ERRORS

# URL with 404 errors - Hits - Last URL referer
BEGIN_SIDER_404 3
/web-console/ServerInfo.jsp 1 -
/robots.txt 124 -
/manager/html 1 -
END_SIDER_404

# Host - Pages - Hits - Bandwidth - Last visit date - [Start date of last visit] - [Last page of last visit]
# [Start date of last visit] and [Last page of last visit] are saved only if session is not finished
# The 10 first Hits must be first (order not required for others)
BEGIN_VISITOR 30
178-191-13-232.adsl.highway.telekom.at 23 38 231698 20130725173849
91-114-185-163.adsl.highway.telekom.at 19 25 100822 20130722113336
188-23-14-132.adsl.highway.telekom.at 8 14 89583 20130719093347
178-191-106-62.adsl.highway.telekom.at 4 10 85089 20130724222126
188-22-181-44.adsl.highway.telekom.at 4 9 76440 20130704205033
schulpool234.eduhi.at 4 11 87737 20130703092811
176-9-51-204.crawler.sistrix.net 2 2 2378 20130723032236
p508f7ee2.dip0.t-ipconnect.de 2 7 74062 20130721155529
loft1588.serverloft.de 2 3 11027 20130714200812
msnbot-131-253-24-49.search.msn.com 2 7 74062 20130729203827
64.124.203.71.available.above.net 1 1 0 20130723093124
74.217.148.71 1 1 2378 20130723082700
schulpool225.eduhi.at 2 7 74062 20130701132911
188-22-45-163.adsl.highway.telekom.at 2 7 74062 20130701225151
p57a31c6c.dip0.t-ipconnect.de 2 7 74062 20130702191350
178-190-172-239.adsl.highway.telekom.at 2 7 74062 20130707223714
schulpool226.eduhi.at 2 7 74062 20130721194005
88-117-100-207.adsl.highway.telekom.at 2 7 74062 20130711152821
208.50.101.154 1 1 2378 20130723093125
cpe90-146-19-2.isp4you.eu 2 7 74062 20130729150412
xan.metajob.at 0 1 8649 
213162068157.public.t-mobile.at 2 7 74062 20130731113744
77.117.246.153.wireless.dyn.drei.com 2 8 82711 20130728151802
loft1583.serverloft.de 2 2 2378 20130713104235
77.117.246.102.wireless.dyn.drei.com 2 7 74062 20130708092540
178-190-36-44.adsl.highway.telekom.at 2 7 74062 20130716231747
089144192027.atnat0001.highway.a1.net 2 7 74062 20130713164530
188-22-112-27.adsl.highway.telekom.at 2 7 74062 20130725152010
93-82-64-156.adsl.highway.telekom.at 2 8 82711 20130714215213
64.124.203.73.available.above.net 1 1 0 20130723082659
END_VISITOR

# Date - Pages - Hits - Bandwidth - Visits
BEGIN_DAY 19
20130701 4 14 148124 2
20130702 2 7 74062 1
20130703 4 11 87737 1
20130704 4 9 76440 1
20130707 2 7 74062 1
20130708 2 7 74062 1
20130711 2 7 74062 1
20130713 4 9 76440 2
20130714 4 11 93738 2
20130716 2 7 74062 1
20130719 8 14 89583 1
20130721 4 14 148124 2
20130722 19 25 100822 1
20130723 6 6 7134 5
20130724 4 10 85089 1
20130725 25 45 305760 2
20130728 2 8 82711 1
20130729 4 14 148124 2
20130731 2 8 82711 1
END_DAY

# Session range - Number of visits
BEGIN_SESSION 5
5mn-15mn 1
15mn-30mn 1
2mn-5mn 2
0s-30s 23
30s-2mn 2
END_SESSION

# URL - Pages - Bandwidth - Entry - Exit
# The 10 first Pages must be first (order not required for others)
BEGIN_SIDER 9
/login.php 41 95447 2 25
/ 32 0 27 2
/formular.php 17 92867 0 0
/password_recover.php 6 7004 0 1
/password_recover_mail.php 3 3008 0 0
/index.php 2 0 0 0
/index_member.php 1 1399 0 0
/writedb_final.php 1 1099 0 1
/writedb.php 1 0 0 0
END_SIDER
