AWSTATS DATA FILE 6.95 (build 1.943)
# If you remove this file, all statistics for date 201104 will be lost/reset.
# Last config file used to build this data file was /etc/awstats/awstats.conf.

# Position (offset in bytes) in this file for beginning of each section for
# direct I/O access. If you made changes somewhere in this file, you should
# also remove completely the MAP section (AWStats will rewrite it at next
# update).
BEGIN_MAP 27
POS_GENERAL 1945                
POS_TIME 2624                
POS_VISITOR 7327                
POS_DAY 11217               
POS_DOMAIN 3338                
POS_LOGIN 3628                
POS_ROBOT 3783                
POS_WORMS 4286                
POS_EMAILSENDER 4417                
POS_EMAILRECEIVER 4560                
POS_SESSION 11864               
POS_SIDER 12072               
POS_FILETYPES 4695                
POS_OS 4854                
POS_BROWSER 4962                
POS_SCREENSIZE 5187                
POS_UNKNOWNREFERER 5261                
POS_UNKNOWNREFERERBROWSER 5348                
POS_ORIGIN 5430                
POS_SEREFERRALS 5571                
POS_PAGEREFS 5735                
POS_SEARCHWORDS 6035                
POS_KEYWORDS 6236                
POS_MISC 2288                
POS_ERRORS 6348                
POS_CLUSTER 3484                
POS_SIDER_404 6460                
END_MAP

# LastLine    = Date of last record processed - Last record line number in last log - Last record offset in last log - Last record signature value
# FirstTime   = Date of first visit for history file
# LastTime    = Date of last visit for history file
# LastUpdate  = Date of last update - Nb of parsed records - Nb of parsed old records - Nb of parsed new records - Nb of parsed corrupted - Nb of parsed dropped
# TotalVisits = Number of visits
# TotalUnique = Number of unique visitors
# MonthHostsKnown   = Number of hosts known
# MonthHostsUnKnown = Number of hosts unknown
BEGIN_GENERAL 8
LastLine 20110501063646 18154 4629569 19544470144
FirstTime 20110401152640
LastTime 20110430182511
LastUpdate 20110502010050 1 0 0 0 0
TotalVisits 80                  
TotalUnique 69                  
MonthHostsKnown 61                  
MonthHostsUnknown 9                   
END_GENERAL

# Misc ID - Pages - Hits - Bandwidth
BEGIN_MISC 10
QuickTimeSupport 0 0 0
JavaEnabled 0 0 0
JavascriptDisabled 0 0 0
PDFSupport 0 0 0
WindowsMediaPlayerSupport 0 0 0
AddToFavourites 0 0 0
RealPlayerSupport 0 0 0
TotalMisc 0 0 0
DirectorSupport 0 0 0
FlashSupport 0 0 0
END_MISC

# Hour - Pages - Hits - Bandwidth - Not viewed Pages - Not viewed Hits - Not viewed Bandwidth
BEGIN_TIME 24
0 0 0 0 14 14 9111
1 2 2 2399 12 12 4079
2 0 0 0 7 9 13117
3 0 0 0 19 22 35753
4 0 0 0 13 17 21204
5 0 0 0 14 16 16522
6 4 21 167738 15 17 18453
7 4 10 82342 9 11 7800
8 88 206 1007154 8 16 5447
9 61 177 553543 7 15 3460
10 45 86 495284 20 24 16240
11 19 49 436999 1 5 208
12 37 87 536638 8 19 77218
13 40 82 511064 20 31 18093
14 24 57 352405 23 37 13468
15 62 147 932504 2 11 2585
16 25 57 336635 110 117 35102
17 11 33 239945 3 6 2606
18 72 140 1009718 12 23 10815
19 37 94 658847 9 18 3889
20 72 123 1833458 6 16 1335
21 17 34 176690 9 13 1285
22 2 7 74031 3 3 2607
23 0 0 0 1 1 208
END_TIME

# Domain - Pages - Hits - Bandwidth
# The 10 first Pages must be first (order not required for others)
BEGIN_DOMAIN 5
at 455 1000 7960656
ip 160 393 1282602
de 4 9 76461
ua 2 4 13644
net 1 6 74031
END_DOMAIN

# Cluster ID - Pages - Hits - Bandwidth
BEGIN_CLUSTER 0
END_CLUSTER

# Login - Pages - Hits - Bandwidth - Last visit
# The 10 first Pages must be first (order not required for others)
BEGIN_LOGIN 0
END_LOGIN

# Robot ID - Hits - Bandwidth - Last visit - Hits on robots.txt
# The 10 first Hits must be first (order not required for others)
BEGIN_ROBOT 11
bot[\s_+:,\.\;\/\\-] 39 54967 20110429122640 0
slurp 32 64227 20110430062907 0
googlebot 17 82979 20110422211428 0
yandex 12 16709 20110425134042 0
no_user_agent 10 0 20110404145456 0
heritrix 8 25536 20110404035013 0
bbot 5 6528 20110430065728 0
python 4 4777 20110429004158 0
crawl 4 4777 20110430032937 0
mj12bot 3 4798 20110407104139 0
robot 3 4171 20110407130848 0
END_ROBOT

# Worm ID - Hits - Bandwidth - Last visit
# The 5 first Hits must be first (order not required for others)
BEGIN_WORMS 0
END_WORMS

# EMail - Hits - Bandwidth - Last visit
# The 20 first Hits must be first (order not required for others)
BEGIN_EMAILSENDER 0
END_EMAILSENDER

# EMail - Hits - Bandwidth - Last visit
# The 20 first hits must be first (order not required for others)
BEGIN_EMAILRECEIVER 0
END_EMAILRECEIVER

# Files type - Hits - Bandwidth - Bandwidth without compression - Bandwidth after compression
BEGIN_FILETYPES 6
php 551 2704952 0 0
css 157 226705 0 0
png 256 1031967 0 0
html 71 0 0 0
js 115 706254 0 0
jpg 262 4737516 0 0
END_FILETYPES

# OS ID - Hits
BEGIN_OS 6
macosx 37
winxp 970
winlong 143
win2000 7
linuxubuntu 35
win2008 220
END_OS

# Browser ID - Hits
BEGIN_BROWSER 12
msie6.0 99
msie8.0 732
firefox3.5.6 6
msie7.0 114
firefox3.6.3 2
firefox4.0 242
safari4.0.5 28
firefox3.6.16 112
msie9.0 13
firefox3.5.18 13
firefox3.6.13 7
firefox3.6.15 44
END_BROWSER

# Screen size - Hits
BEGIN_SCREENSIZE 0
END_SCREENSIZE

# Unknown referer OS - Last visit date
BEGIN_UNKNOWNREFERER 0
END_UNKNOWNREFERER

# Unknown referer Browser - Last visit date
BEGIN_UNKNOWNREFERERBROWSER 0
END_UNKNOWNREFERERBROWSER

# Origin - Pages - Hits 
BEGIN_ORIGIN 6
From0 53 53
From1 0 0
From2 6 6
From3 148 148
From4 415 1205
From5 0 0
END_ORIGIN

# Search engine referers ID - Pages - Hits
BEGIN_SEREFERRALS 2
google 4 4
bing 2 2
END_SEREFERRALS

# External page referers - Pages - Hits
# The 10 first Pages must be first (order not required for others)
BEGIN_PAGEREFS 4
http://www.buchzeit.at/index.php 84 84
http://www.buchzeit.at 49 49
http://www3.edumoodle.at/buchzeitwels/course/view.php 9 9
http://www.lkz-ooe.at 6 6
END_PAGEREFS

# Search keyphrases - Number of search
# The 10 first number of search must be first (order not required for others)
BEGIN_SEARCHWORDS 3
http+%2f%2fsb.buchzeit.at 2
buchzeit 2
lzk+ooe 2
END_SEARCHWORDS

# Search keywords - Number of search
# The 10 first number of search must be first (order not required for others)
BEGIN_KEYWORDS 5
%2f%2fsb.buchzeit.at 2
ooe 2
buchzeit 2
http 2
lzk 2
END_KEYWORDS

# Errors - Hits - Bandwidth
BEGIN_ERRORS 3
302 138 31832
404 88 18587
301 3 717
END_ERRORS

# URL with 404 errors - Hits - Last URL referer
BEGIN_SIDER_404 18
/robots.txt 67 -
/mysql/setup/config.php 1 -
/mysql/scripts/setup.php 2 -
/phpadmin/scripts/setup.php 1 -
/myAdmin/scripts/setup.php 1 -
/myAdmin/setup/config.php 1 -
/phpmyadmin/scripts/setup.php 2 -
/pma/scripts/setup.php 2 -
/phpmyadmin/setup/config.php 1 -
/phpAdmin/setup/config.php 1 -
/phpMyAdmin/setup/config.php 1 -
/pma/setup/config.php 1 -
/admincp/new_school.php 1 https://sb.buchzeit.at/admincp/listschools.php
/phpMyAdmin/scripts/setup.php 2 -
/scripts/setup.php 1 -
/phpAdmin/scripts/setup.php 1 -
/phpadmin/setup/config.php 1 -
/webdav/ 1 -
END_SIDER_404

# Host - Pages - Hits - Bandwidth - Last visit date - [Start date of last visit] - [Last page of last visit]
# [Start date of last visit] and [Last page of last visit] are saved only if session is not finished
# The 10 first Hits must be first (order not required for others)
BEGIN_VISITOR 70
10.9.1.187 115 273 542478 20110418100657
62-47-38-140.adsl.highway.telekom.at 47 66 1387103 20110405202455
83-215-16-252.bruck.dyn.salzburg-online.at 45 72 249150 20110411181606
schulpool235.eduhi.at 30 57 355035 20110413125246
sec-gw.itandtel.at 30 47 331223 20110408085546
schulpool226.eduhi.at 22 48 340020 20110407073701
chello084113227087.18.14.vie.surfer.at 22 48 401069 20110430182511
188-23-105-249.adsl.highway.telekom.at 21 37 127490 20110429193828
62.93.82.243 21 49 122976 20110405083718
85-125-196-115.taubstummengasse.xdsl-line.inode.at 21 35 173705 20110408131621
194.48.133.8 2 7 76489 20110410191146
gateway.phst.at 2 7 74031 20110409145633
2121861361.cust.catv-kabelmedien.at 2 7 74031 20110408171519
78.104.63.184 1 6 74031 20110407104907
188-22-41-105.adsl.highway.telekom.at 7 18 86550 20110406155551
91-115-141-230.adsl.highway.telekom.at 2 7 74031 20110411172209
simmu2-71-73.utaonline.at 1 6 74062 20110427104137
88-117-108-193.adsl.highway.telekom.at 2 7 74062 20110423182942
78.104.65.173 1 6 74062 20110427110944
schulpool232.eduhi.at 20 40 190850 20110407122310
188-22-109-140.adsl.highway.telekom.at 4 15 82283 20110405195802
spz-v10.spz.tu-darmstadt.de 2 7 74062 20110421154415
188-23-18-102.adsl.highway.telekom.at 2 7 74031 20110410105523
schulpool230.eduhi.at 1 6 74062 20110427085537
93-82-13-22.adsl.highway.telekom.at 2 7 74031 20110404174203
ip140-186.41.193.dan.net.ua 2 4 13644 20110415173444
93-82-53-72.adsl.highway.telekom.at 2 7 74031 20110414123941
82-149-115-228.wco.wellcom.at 4 10 84741 20110413182227
62-47-135-49.adsl.highway.telekom.at 8 14 90227 20110407170014
178-191-8-68.adsl.highway.telekom.at 3 13 76440 20110428131511
p4feda08a.dip.t-dialin.net 1 6 74031 20110411155035
91-115-155-158.adsl.highway.telekom.at 9 34 369776 20110426080415
91-113-13-142.adsl.highway.telekom.at 2 7 74031 20110412120213
schulpool236.eduhi.at 1 6 74031 20110408113551
mail.ggverlag.at 2 7 74031 20110415081737
fw.eduhi.at 4 14 76430 20110405093344
188-23-104-88.adsl.highway.telekom.at 1 6 74031 20110412195753
82.192.24.188.jm-data.at 1 6 74031 20110404191728
188-23-11-239.adsl.highway.telekom.at 10 22 18864 20110413155935
188-23-13-143.adsl.highway.telekom.at 7 18 16660 20110427141003
93.82.179.82 4 14 148931 20110414115611
62-47-183-40.adsl.highway.telekom.at 2 7 74031 20110412205255
teacheradsl249.eduhi.at 1 6 74031 20110404120450
88-117-116-149.adsl.highway.telekom.at 2 7 74031 20110415140515
xan.metajob.at 0 2 17246 
87.243.136.36 12 24 95542 20110401212451
static.78-46-80-99.clients.your-server.de 2 2 2399 20110407012345
cpe90-146-168-214.liwest.at 1 6 74062 20110426210025
62-47-58-110.adsl.highway.telekom.at 12 17 84536 20110403210302
proxy-vw.wbn.wien.at 2 7 74031 20110405152051
schulpool234.eduhi.at 2 7 74031 20110412130650
cpe90-146-206-175.liwest.at 12 17 100869 20110424184354
schulpool227.eduhi.at 14 29 179095 20110419150759
vie-lim-ge-1-2.onenet.at 6 21 222093 20110409164953
194.24.158.3 2 7 74031 20110410195702
62-47-33-218.adsl.highway.telekom.at 6 13 94162 20110411155220
proxy006.salzburg.at 2 7 74031 20110406191302
schulpool231.eduhi.at 1 6 74031 20110414104126
d91-130-23-55.cust.tele2.at 1 6 74062 20110428062528
62-47-50-150.adsl.highway.telekom.at 11 23 146812 20110414205556
62-47-153-124.adsl.highway.telekom.at 3 8 4857 20110414164734
viruswall-sl.wbn.wien.at 8 18 86203 20110414122139
d83-191-124-61.cust.tele2.at 2 7 74031 20110411131702
62-47-44-242.adsl.highway.telekom.at 5 25 273923 20110426184602
marssrv.ph-noe.ac.at 2 7 74031 20110405141318
91-115-152-125.adsl.highway.telekom.at 2 7 74031 20110403151900
193.171.248.249 2 7 74062 20110428190650
85-126-206-57.teleworker.xdsl-line.inode.at 1 6 74062 20110425165057
62-47-37-173.adsl.highway.telekom.at 13 23 139975 20110418111941
62-68-201-83.miex.at 7 17 154246 20110407093133
END_VISITOR

# Date - Pages - Hits - Bandwidth - Visits
BEGIN_DAY 25
20110401 32 69 427251 3
20110403 14 24 158567 2
20110404 27 57 448602 5
20110405 82 165 1890885 8
20110406 25 62 332278 4
20110407 42 89 594095 7
20110408 51 94 660161 5
20110409 4 14 148062 2
20110410 6 22 233148 3
20110411 42 75 467739 5
20110412 7 27 296124 4
20110413 24 52 224960 3
20110414 31 78 537264 7
20110415 6 18 161706 3
20110418 128 296 682453 2
20110419 14 29 179095 1
20110421 2 7 74062 1
20110423 2 7 74062 1
20110424 12 17 100869 1
20110425 1 6 74062 1
20110426 15 65 717761 3
20110427 10 36 238846 4
20110428 6 26 224564 3
20110429 21 37 127490 1
20110430 18 40 333288 1
END_DAY

# Session range - Number of visits
BEGIN_SESSION 7
1h+ 1
5mn-15mn 9
0s-30s 43
2mn-5mn 11
15mn-30mn 5
30s-2mn 10
30mn-1h 1
END_SESSION

# URL - Pages - Bandwidth - Entry - Exit
# The 10 first Pages must be first (order not required for others)
BEGIN_SIDER 24
/login.php 215 459875 25 63
/formular.php 90 401118 0 0
/ 67 0 48 0
/admincp/login.php 62 82968 6 6
/index_member.php 38 44468 0 0
/admincp/listschools.php 38 501642 0 0
/password_recover.php 30 44562 0 5
/index.php 15 0 0 0
/admincp/new_school.php 12 25247 0 0
/profile.php 7 12480 0 1
/step1.php 1 0 0 0
/newsletter.php 6 4891 0 0
/writedb_final.php 6 6636 0 3
/header.php 1 889 0 0
/admincp/ 4 0 1 0
/admincp/listschools_detail_print.php 1 10689 0 0
/admincp/listschools_detail.php 4 47396 0 0
/admincp/csv_output.php 1 1000212 0 0
/admincp/profile.php 4 8353 0 0
/admincp/index.php 2 0 0 0
/writedb.php 6 0 0 0
/password_recover_mail.php 5 7236 0 1
/admincp/search.php 5 29900 0 1
/admincp/search_output.php 2 16390 0 0
END_SIDER
